<svg viewBox="0 0 1078 1024">
<path d="M660 511q0 50-35 85.5t-85 35.5-85.5-35.5-35.5-85.5 35.5-85 85.5-35 85 35 35 85v0zM1069 112q3 15 5 32t2 35q0 22-3 43t-9 41l1-2q-7 24-21.5 44t-34.5 34v0q-123 82-247 162-3 2-6 3.5t-6 2.5h-1q0-37-0.5-73t1.5-71q1-19 10.5-35.5t23.5-28.5q11-10 23-19t25-18l2-1q55-36 110-71t111-71q3-1 6.5-3t7.5-4v0zM749 512q9 5 15 9t12 7q55 36 110.5 72t112.5 71q40 25 58 61t20 81q1 23 1 46v49q-8-4-12.5-6t-8.5-4q-108-68-217-136-6-4-13-9t-14-9q-34-22-50-53t-14-72q1-26 0.5-52t-0.5-55v0zM141 9q15-3 32-5t34-2q22 0 43 3t41 9h-2q25 6 45 20.5t34 34.5v0q81 124 162 247 1 3 2.5 6t2.5 6l1 1q-37 0-73 0.5t-72-1.5q-19 0-35-9.5t-29-24.5q-9-11-18.5-23t-18.5-25l-1-2q-35-55-70.5-110t-70.5-111q-2-3-3.5-6t-3.5-8v0zM540 329q5-9 9-15t7-12q36-55 72-110.5t71-112.5q25-40 61-58t81-20q22-1 45.5-1h49.5q-4 8-6 12.5t-4 8.5q-68 108-136 217-4 7-9 13.5t-9 13.5q-22 34-53 50t-73 14q-25-1-51-0.5t-55 0.5v0zM937 1014q-15 4-32 6t-35 2q-22 0-43-3t-41-9h2q-24-6-44-20.5t-34-34.5v-1q-82-123-162-246-2-3-3.5-6t-2.5-6v-1q37 0 73-0.5t71 0.5q19 1 35.5 10.5t28.5 24.5q10 11 19 23t18 25l1 2q36 55 71 110t71 110q1 3 3 6.5t4 7.5v0zM538 695q-5 9-9 15t-7 12q-36 55-72 110.5t-71 112.5q-25 40-61 58t-80 20q-23 1-46.5 1h-49.5q4-8 6-12.5t4-8.5q68-108 136-217 4-7 9-13.5t9-13.5q22-34 53-50t73-14q25 1 51 0.5t55-0.5v0zM10 909q-4-15-6-32t-2-34q0-22 3-43t9-41v2q6-25 20.5-45t34.5-34h1l246-162q3-1 6-2.5t6-2.5l1-1q0 37 0.5 73t-1.5 72q0 19-9.5 35t-24.5 29q-11 9-23 18.5t-25 18.5l-2 1q-55 35-110 70.5t-110 70.5q-3 2-6.5 3.5t-7.5 3.5v0zM329 510q-9-5-15-9t-12-7q-55-36-110.5-72t-112.5-71q-40-25-58-61t-20-81q-1-22-1-45.5v-49.5q8 4 12.5 6t8.5 4q108 68 217 136 7 4 13.5 9t13.5 9q34 22 50 53t14 72q-1 26-0.5 52t0.5 55v0z"></path>
</svg>
