<?xml version="1.0" encoding="iso-8859-1"?>
<!-- Generator: Adobe Illustrator 16.0.0, SVG Export Plug-In . SVG Version: 6.00 Build 0)  -->
<!DOCTYPE svg PUBLIC "-//W3C//DTD SVG 1.1//EN" "http://www.w3.org/Graphics/SVG/1.1/DTD/svg11.dtd">
<svg version="1.1" id="splitsvg" xmlns="http://www.w3.org/2000/svg" xmlns:xlink="http://www.w3.org/1999/xlink" x="0px" y="0px"
	 viewBox="35.688 2.89 388.671 342.482"
	 style="enable-background:new 35.688 2.89 388.671 342.482;" xml:space="preserve">
<path id="path0" d="M179.861,5.545c-0.77,1.538-2.834,5.351-4.586,8.475c-3.477,6.195-3.472,6.185-7.739,13.664
	c-1.615,2.831-4.016,7.063-5.335,9.406c-1.32,2.342-3.336,5.918-4.481,7.945c-2.482,4.394-2.744,5.828-1.954,10.688
	c2.62,16.124,3.17,41.282,1.277,58.385c-2.027,18.314-5.672,34.582-11.768,52.529c-0.837,2.465-4.994,13.17-5.927,15.262
	c-2.481,5.568-3.331,7.375-5.829,12.397c-1.547,3.109-3.59,7.005-4.541,8.658c-0.951,1.651-1.729,3.063-1.729,3.137
	c0,0.164-4.061,6.707-6.683,10.769c-9.42,14.586-22.621,30.354-35.476,42.369c-2.076,1.939-2.197,2.136-1.745,2.838
	c0.527,0.82,2.943,4.97,4.055,6.967c0.38,0.683,1.223,2.199,1.872,3.372c0.65,1.171,1.469,2.643,1.821,3.271
	c0.352,0.628,1.23,2.226,1.952,3.55c0.722,1.323,3.185,5.76,5.475,9.859s4.891,8.811,5.78,10.471
	c1.856,3.461,1.763,3.418,3.794,1.774c1.419-1.149,3.594-2.915,5.02-4.077c13.197-10.749,37.24-25.452,53.709-32.843
	c0.976-0.438,2.733-1.233,3.905-1.769c1.171-0.533,3.407-1.487,4.969-2.119c1.561-0.631,3.318-1.346,3.904-1.59
	c0.585-0.242,1.623-0.642,2.307-0.886c0.683-0.245,1.561-0.579,1.952-0.744c0.39-0.165,2.307-0.806,4.259-1.423
	c1.952-0.617,3.869-1.25,4.259-1.406s1.029-0.39,1.42-0.518c3.996-1.314-33.681-1.469-47.55-0.195
	c-4.151,0.381-4.165,0.844,0.2-6.285c7.001-11.435,13.488-22.238,14.759-24.584c0.794-1.463,1.807-3.301,2.25-4.082
	c1.019-1.791,7.448-14.615,7.448-14.854c0-0.098,0.54-1.348,1.201-2.777c0.66-1.43,1.633-3.638,2.163-4.906
	c0.529-1.27,1.171-2.787,1.425-3.371c0.932-2.149,2.77-6.77,3.035-7.631c0.15-0.488,0.937-2.725,1.749-4.97
	c1.331-3.683,2.243-6.456,4.265-12.955c1.186-3.816,3.646-13.388,4.788-18.634c0.319-1.464,0.719-3.3,0.889-4.081
	c0.171-0.781,0.548-2.698,0.84-4.259c0.509-2.732,0.799-4.414,1.623-9.406c3.177-19.253,3.936-48.153,1.779-67.79
	c-0.613-5.588-1.381-11.752-1.769-14.197c-0.847-5.35-1.964-11.575-2.452-13.665c-0.182-0.781-0.587-2.618-0.9-4.082
	c-0.313-1.464-0.716-3.221-0.896-3.904s-0.665-2.6-1.079-4.259c-0.414-1.659-0.891-3.496-1.06-4.082
	c-0.169-0.585-0.544-1.943-0.834-3.016c-0.289-1.074-0.947-3.39-1.462-5.147c-0.515-1.757-1.147-4.05-1.404-5.096
	C181.974,2.346,181.479,2.315,179.861,5.545 M277.87,3.461c-0.109,0.341-0.328,1.02-0.484,1.508
	c-0.157,0.488-0.551,1.846-0.874,3.017c-0.632,2.286-1.721,6.109-2.477,8.695c-2.449,8.378-5.881,24.098-5.881,26.937
	c0,4.043,6.617,26.056,10.331,34.373c0.37,0.827,0.672,1.599,0.672,1.715c0,0.2,1.188,2.979,3.101,7.251
	c2.977,6.651,8.178,16.64,10.851,20.844c0.525,0.826,0.955,1.582,0.955,1.679c0,0.594,9.637,15.099,10.032,15.099
	c0.212,0,0.264-0.535,0.13-1.331c-1.662-9.906-2.402-20.381-2.397-33.919c0.006-12.998,0.501-20.218,2.231-32.541
	c0.997-7.102,1.003-7.075-3.677-15.254c-2.181-3.811-4.868-8.526-5.971-10.478c-2.832-5.012-7.815-13.776-9.384-16.504
	c-2.379-4.137-3.412-6.037-4.84-8.896C278.775,2.822,278.239,2.314,277.87,3.461 M206.398,44.987c0,0.537,0.241,2.129,0.535,3.539
	c0.997,4.782,2.067,15.353,2.685,26.541c0.462,8.361,0.242,30.607-0.356,36.024c-0.205,1.855-0.62,5.848-0.923,8.874
	c-0.779,7.779-2.287,17.745-3.357,22.182c-1.051,4.36-0.343,3.907,3.187-2.041c5.602-9.439,8.253-14.259,17.054-31.011
	c5.257-10.004,4.542-9.533,7.067-4.658c1.78,3.435,2.682,5.148,6.632,12.599c12.492,23.561,22.492,38.741,35.952,54.57
	c18.232,21.441,38.606,39.082,62.248,53.893c2.697,1.69,4.977,3.071,5.065,3.071c0.091,0,1.157,0.623,2.373,1.383
	c4.701,2.939,24.892,13.17,25.99,13.17c0.086,0,1.08,0.416,2.208,0.924c3.222,1.452,3.193,1.441,8.616,3.532
	c8.733,3.368,20.906,7.288,27.507,8.858c1.366,0.324,2.964,0.734,3.549,0.912c0.586,0.176,2.822,0.727,4.97,1.223
	c2.146,0.496,4.485,1.076,5.196,1.289c1.908,0.572,2.223,0.156,1.159-1.528c-0.5-0.791-1.322-2.181-1.827-3.089
	c-1.957-3.516-2.211-3.955-3.09-5.348c-0.499-0.789-0.906-1.491-0.906-1.561c0-0.068-1.134-2.109-2.52-4.533
	c-1.386-2.423-2.973-5.219-3.528-6.212c-0.554-0.993-3.493-6.153-6.531-11.466c-3.036-5.314-5.522-9.797-5.522-9.964
	c0-0.166-0.694-1.017-1.542-1.89c-1.666-1.713-2.104-1.944-8.928-4.703c-5.701-2.303-17.567-8.01-22.005-10.582
	c-0.781-0.453-2.299-1.312-3.372-1.907c-7.679-4.263-22.57-14.407-28.927-19.705c-0.391-0.325-1.924-1.597-3.406-2.825
	c-30.505-25.262-55.693-61.05-68.643-97.53c-0.52-1.464-1.082-2.982-1.25-3.372c-1.857-4.326-7.447-24.584-7.447-26.989
	c0-0.462-0.185-1.246-0.412-1.743l-0.411-0.904h-23.546h-23.545V44.987 M125.256,176.821c-0.563,0.429-1.594,1.267-2.291,1.865
	c-2.384,2.039-2.995,2.524-5.654,4.486c-7.776,5.74-16.355,11.198-25.732,16.372c-2.647,1.461-15.296,7.731-15.595,7.731
	c-0.098,0-1.101,0.412-2.229,0.914s-2.531,1.127-3.116,1.388c-0.586,0.261-2.404,0.987-4.041,1.614
	c-3.076,1.181-5.189,2.738-6.085,4.488c-0.282,0.551-1.274,2.342-2.203,3.981c-0.93,1.638-1.691,3.009-1.691,3.046
	c0,0.036-1.357,2.432-3.017,5.322c-1.659,2.89-3.016,5.328-3.016,5.416c0,0.09-0.297,0.587-0.66,1.104
	c-0.363,0.519-1.188,1.901-1.833,3.072c-2.279,4.136-2.966,5.351-4.488,7.926c-0.846,1.433-1.538,2.657-1.538,2.722
	c0,0.066-0.958,1.744-2.129,3.727c-1.171,1.984-2.13,3.682-2.13,3.773c0,0.09-0.553,1.03-1.229,2.088
	c-1.574,2.459-1.465,2.496,3.663,1.222c2.363-0.587,4.978-1.211,5.812-1.386c1.601-0.336,5.535-1.354,8.791-2.273
	c1.073-0.303,2.351-0.65,2.839-0.771c0.488-0.119,4.641-1.439,9.228-2.932l8.341-2.714l3.86-3.737
	c3.419-3.313,9.439-9.668,12.466-13.164c2.153-2.486,4.671-5.507,5.343-6.41c0.38-0.51,1.901-2.506,3.379-4.437
	c4.635-6.05,10.26-14.431,13.61-20.278c0.699-1.221,1.848-3.217,2.553-4.438c1.128-1.95,4.282-7.971,8.974-17.125
	C127.341,175.702,127.31,175.26,125.256,176.821 M291.224,209.146c0,0.262,1.039,2.295,2.307,4.519
	c1.269,2.224,2.308,4.071,2.308,4.106c0,0.461,7.823,13.635,17.881,30.109c3.935,6.443,3.943,6.285-0.313,5.885
	c-9.541-0.896-36.453-1.203-45.962-0.525c-13.991,0.996-28.457,3.014-39.22,5.468c-0.78,0.178-2.617,0.587-4.081,0.908
	c-5.679,1.245-15.546,3.886-17.924,4.797c-0.39,0.149-3.345,1.121-6.566,2.16c-3.221,1.038-6.096,2.009-6.389,2.155
	s-1.49,0.606-2.662,1.022c-2.186,0.776-11.167,4.46-14.019,5.751c-5.037,2.28-6.689,3.066-11.362,5.402
	c-8.112,4.056-22.015,11.957-22.297,12.673c-0.065,0.165-0.258,0.301-0.428,0.301c-1.454,0-20.656,14.147-29.622,21.823
	c-9.32,7.979-28.461,27.178-29.222,29.309c-0.192,0.538,50.3,0.434,52.324-0.107c1.183-0.315,2.938-1.473,6.305-4.153
	c14.291-11.381,31.407-22.003,46.192-28.666c1.366-0.616,3.602-1.628,4.969-2.25c5.686-2.587,19.034-7.423,25.909-9.386
	c1.172-0.336,2.529-0.748,3.017-0.918c0.488-0.17,2.644-0.719,4.792-1.219c2.147-0.502,4.782-1.125,5.856-1.387
	c1.074-0.262,2.91-0.669,4.081-0.902c1.172-0.235,2.769-0.573,3.55-0.752c1.321-0.303,2.701-0.541,8.163-1.41
	c3.15-0.5,12.477-1.637,17.746-2.159c6.029-0.599,26.879-0.599,33.008,0c12.037,1.176,18.096,2.063,28.572,4.188
	c4.092,0.829,12.572,2.897,15.084,3.678c0.586,0.182,3.212,1,5.836,1.816c3.956,1.233,4.822,1.401,5.066,0.984
	c0.414-0.708,11.234-20.225,12.828-23.141c0.724-1.324,1.604-2.922,1.956-3.55c0.352-0.629,1.171-2.101,1.82-3.271
	c0.649-1.173,1.454-2.609,1.789-3.195c0.334-0.585,1.188-2.078,1.894-3.315c0.707-1.238,1.626-2.73,2.042-3.313
	c0.893-1.255,0.624-1.647-1.644-2.392c-1.428-0.47-2.457-0.881-4.845-1.939c-0.713-0.316-1.391-0.575-1.507-0.575
	s-1.449-0.565-2.963-1.258s-3.87-1.769-5.237-2.39c-4.122-1.877-16.493-8.215-19.461-9.969c-1.529-0.906-2.837-1.646-2.906-1.646
	c-0.283,0-10.545-6.334-14.012-8.649c-11.819-7.893-21.939-15.678-29.814-22.938C292.076,208.994,291.224,208.49,291.224,209.146
	 M274.72,305.417c-0.195,0.069-3.625,0.308-7.622,0.532c-9.384,0.523-9.81,0.803-4.09,2.679c0.976,0.32,2.254,0.787,2.839,1.038
	c19.809,8.48,33.944,17.072,54.198,32.945c1.39,1.089,3.052,2.043,3.998,2.298c1.726,0.461,52.363,0.661,52.363,0.206
	c0-0.719-14.13-15.53-20.786-21.786c-6.361-5.979-8.517-7.726-10.271-8.318c-2.117-0.716-8.72-2.632-10.47-3.038
	c-0.683-0.16-2.6-0.617-4.259-1.02c-1.659-0.401-3.896-0.906-4.969-1.123c-1.073-0.216-2.592-0.542-3.372-0.725
	c-0.78-0.182-2.537-0.502-3.904-0.713c-1.366-0.211-3.283-0.509-4.259-0.662C303.016,305.996,277.344,304.488,274.72,305.417"/>
</svg>
