{
  "autoPlay": true,
  "fullScreen": {
    "enable": true,
    "zIndex": 1
  },
  "detectRetina": true,
  "duration": 0,
  "fpsLimit": 60,
  "particles": {
    "move": {
      "decay": 0,
      "distance": {},
      "direction": "right",
      "straight": true,
      "drift": 0,
      "enable": true,
      "outMode": "out",
      "speed": 50
    },
    "number": {
      "value": 100
    },
    "opacity": {
      "random": {
        "enable": true,
        "minimumValue": 0.5
      },
      "value": {
        "min": 0.5,
        "max": 1
      },
      "animation": {
        "count": 0,
        "enable": true,
        "speed": 1,
        "sync": false,
        "startValue": "random",
        "minimumValue": 0
      }
    },
    "shape": {
      "options": {},
      "type": "image"
    },
    "size": {
      "random": {
        "enable": true,
        "minimumValue": 10
      },
      "value": {
        "max": 1000,
        "min": 10
      },
      "animation": {
        "count": 0,
        "enable": true,
        "speed": 1,
        "sync": false,
        "startValue": "random",
        "minimumValue": 0
      }
    },
    "stroke": {
      "width": 0
    },
    "zIndex": {
      "random": {
        "enable": false,
        "minimumValue": 0
      },
      "value": 0,
      "opacityRate": 1,
      "sizeRate": 1,
      "velocityRate": 1
    }
  },
  "pauseOnBlur": true,
  "pauseOnOutsideViewport": true,
  "zLayers": 100
}